1 10 20
100 200 125
201 210 89
900 1000 174
329 200 144
708 566 171
742 318 171
965 224 179
406 195 144
138 811 171
43 528 144
968 298 179
930 416 179
220 434 144
433 754 171
638 560 132
870 970 179
994 593 179
195 276 128
518 321 144
906 749 179
835 96 171
105 503 144
373 570 142
3661 2988 199
8657 7279 252
6360 8219 257
1199 2943 217
4785 3959 215
3399 4078 238
1003 7012 262
2627 4238 238
1754 7822 262
4004 3724 189
6938 2798 262
5621 1987 238
6609 9861 260
8209 2336 262
6950 8434 252
1446 2037 180
1555 6137 238
3530 2806 217
3209 1991 217
2443 6785 262
61393 56382 335
57449 36876 340
31919 47899 324
62386 62706 255
89669 90495 315
90207 53672 351
64288 13175 340
95549 99756 328
71499 47201 340
83053 79593 320
80674 83626 320
60732 51149 340
48494 79400 351
51188 70237 340
73024 42649 340
89471 12971 351
52629 73056 335
97494 63393 351
75150 39787 340
61439 16456 340
376743 223860 443
782641 885254 525
642996 812478 504
329392 719979 509
284690 91182 443
139822 938833 525
340279 691219 509
359296 812372 509
579132 755979 509
700535 179951 509
770943 846903 525
991723 65226 525
825065 67768 509
896531 998783 507
583628 542488 452
707108 377598 509
818767 994037 525
392611 856982 525
963092 206352 525
486971 948116 525
731290 63496 509
103056 942735 525
151806 731072 509
515205 558121 452
196054 760518 509
803754 428239 509
227109 37755 386
527212 503168 470
199418 56333 383
61709 714614 509
936358 688139 525
445762 303746 449
546546 965130 525
6407 416351 449
31927 587680 470
451139 450391 387
472858 653022 509
352413 296298 441
543333 811113 509
930568 368887 525
