...................
----------------------------------------------------------------------
Ran 19 tests in 0.246s

OK
Name             Stmts   Miss Branch BrPart  Cover   Missing
------------------------------------------------------------
Collatz.py          31      0     12      0   100%
TestCollatz.py      83      0      0      0   100%
------------------------------------------------------------
TOTAL              114      0     12      0   100%
